{
  "cli": {
    "version": ">= 7.1.1"
  },
  "build": {
    "preview": {
      "android": {
        "buildType": "apk"
      }
    },
    "preview2": {
      "android": {
        "gradleCommand": ":app:assembleRelease"
      }
    },
    "preview3": {
      "developmentClient": true
    },
    "production": {}
  },
  "submit": {
    "production": {}
  }
}
